<?xml version="1.0" encoding="UTF-8" standalone="no"?>
<!-- Created with Inkscape (http://www.inkscape.org/) -->

<svg
   xmlns:dc="http://purl.org/dc/elements/1.1/"
   xmlns:cc="http://creativecommons.org/ns#"
   xmlns:rdf="http://www.w3.org/1999/02/22-rdf-syntax-ns#"
   xmlns:svg="http://www.w3.org/2000/svg"
   xmlns="http://www.w3.org/2000/svg"
   xmlns:xlink="http://www.w3.org/1999/xlink"
   xmlns:sodipodi="http://sodipodi.sourceforge.net/DTD/sodipodi-0.dtd"
   xmlns:inkscape="http://www.inkscape.org/namespaces/inkscape"
   width="232"
   height="192"
   viewBox="0 0 232 192"
   id="svg2"
   version="1.1"
   inkscape:version="0.91 r"
   sodipodi:docname="101.svg"
   inkscape:export-filename="/home/vali/Documents/doc/Design/101.2.png"
   inkscape:export-xdpi="468.6207"
   inkscape:export-ydpi="468.6207"
   enable-background="new">
  <defs
     id="defs4">
    <linearGradient
       inkscape:collect="always"
       id="linearGradient5315">
      <stop
         style="stop-color:#ef5350;stop-opacity:1;"
         offset="0"
         id="stop5317" />
      <stop
         style="stop-color:#f44336;stop-opacity:1"
         offset="1"
         id="stop5319" />
    </linearGradient>
    <linearGradient
       inkscape:collect="always"
       id="linearGradient5225">
      <stop
         style="stop-color:#f5f5f5;stop-opacity:1;"
         offset="0"
         id="stop5227" />
      <stop
         style="stop-color:#f5f5f5;stop-opacity:0;"
         offset="1"
         id="stop5229" />
    </linearGradient>
    <linearGradient
       id="linearGradient5211">
      <stop
         id="stop5213"
         style="stop-color:#9e9e9e;stop-opacity:1"
         offset="0" />
      <stop
         id="stop5215"
         style="stop-color:#eeeeee;stop-opacity:0"
         offset="1" />
    </linearGradient>
    <filter
       id="filter3923"
       style="color-interpolation-filters:sRGB">
      <feFlood
         result="flood"
         flood-color="rgb(0,0,0)"
         flood-opacity="0.3"
         id="feFlood3925" />
      <feComposite
         id="feComposite3927"
         result="composite1"
         in="flood"
         operator="in"
         in2="SourceGraphic" />
      <feGaussianBlur
         result="blur"
         stdDeviation="1"
         id="feGaussianBlur3929" />
      <feOffset
         result="offset"
         dy="1"
         dx="0"
         id="feOffset3931" />
      <feComposite
         id="feComposite3933"
         result="fbSourceGraphic"
         in="SourceGraphic"
         operator="over"
         in2="offset" />
      <feColorMatrix
         id="feColorMatrix3935"
         values="0 0 0 -1 0 0 0 0 -1 0 0 0 0 -1 0 0 0 0 1 0"
         in="fbSourceGraphic"
         result="fbSourceGraphicAlpha" />
      <feFlood
         in="fbSourceGraphic"
         result="flood"
         flood-color="rgb(0,0,0)"
         flood-opacity="0.2"
         id="feFlood3937" />
      <feComposite
         id="feComposite3939"
         result="composite1"
         in="flood"
         operator="in"
         in2="fbSourceGraphic" />
      <feGaussianBlur
         result="blur"
         stdDeviation="0.4"
         id="feGaussianBlur3941" />
      <feOffset
         result="offset"
         dy="0.8"
         dx="0"
         id="feOffset3943" />
      <feComposite
         id="feComposite3945"
         result="composite2"
         in="fbSourceGraphic"
         operator="over"
         in2="offset" />
    </filter>
    <filter
       id="filter4971"
       style="color-interpolation-filters:sRGB">
      <feBlend
         id="feBlend4973"
         mode="multiply"
         in2="BackgroundImage" />
    </filter>
    <linearGradient
       gradientUnits="userSpaceOnUse"
       xlink:href="#linearGradient4961"
       id="linearGradient4967"
       y2="157"
       x2="155"
       y1="52"
       x1="50" />
    <linearGradient
       id="linearGradient4961">
      <stop
         offset="0"
         style="stop-color:#8c8c8c;stop-opacity:1"
         id="stop4963" />
      <stop
         offset="1"
         style="stop-color:#e0e0e0;stop-opacity:0.09803922"
         id="stop4965" />
    </linearGradient>
    <filter
       id="filter4049"
       style="color-interpolation-filters:sRGB">
      <feFlood
         result="flood"
         flood-color="rgb(26,35,126)"
         flood-opacity="0.25"
         id="feFlood4051" />
      <feComposite
         id="feComposite4053"
         result="composite1"
         in="flood"
         operator="in"
         in2="SourceGraphic" />
      <feGaussianBlur
         result="blur"
         stdDeviation="4.0999999999999996"
         id="feGaussianBlur4055" />
      <feOffset
         result="offset"
         dy="4"
         dx="2.5"
         id="feOffset4057" />
      <feComposite
         id="feComposite4059"
         result="fbSourceGraphic"
         in="SourceGraphic"
         operator="over"
         in2="offset" />
      <feColorMatrix
         id="feColorMatrix4061"
         values="0 0 0 -1 0 0 0 0 -1 0 0 0 0 -1 0 0 0 0 1 0"
         in="fbSourceGraphic"
         result="fbSourceGraphicAlpha" />
      <feFlood
         in="fbSourceGraphic"
         result="flood"
         flood-color="rgb(26,35,126)"
         flood-opacity="0.20000000000000001"
         id="feFlood4063" />
      <feComposite
         id="feComposite4065"
         result="composite1"
         in="flood"
         operator="in"
         in2="fbSourceGraphic" />
      <feGaussianBlur
         result="blur"
         stdDeviation="0.29999999999999999"
         id="feGaussianBlur4067" />
      <feOffset
         result="offset"
         dy="1.5"
         dx="0"
         id="feOffset4069" />
      <feComposite
         id="feComposite4071"
         result="composite2"
         in="fbSourceGraphic"
         operator="over"
         in2="offset" />
    </filter>
    <linearGradient
       gradientUnits="userSpaceOnUse"
       xlink:href="#linearGradient3799"
       id="linearGradient3805"
       y2="106.61463"
       x2="111.25854"
       y1="9.2097559"
       x1="8.9365854" />
    <linearGradient
       id="linearGradient3799">
      <stop
         offset="0"
         style="stop-color:#eeeeee;stop-opacity:1"
         id="stop3801" />
      <stop
         offset="1"
         style="stop-color:#eeeeee;stop-opacity:0"
         id="stop3803" />
    </linearGradient>
    <clipPath
       id="b">
      <use
         overflow="visible"
         xlink:href="#a"
         id="use8" />
    </clipPath>
    <clipPath
       id="b-3">
      <use
         overflow="visible"
         xlink:href="#a"
         id="use8-5" />
    </clipPath>
    <clipPath
       id="b-6">
      <use
         overflow="visible"
         xlink:href="#a"
         id="use8-2" />
    </clipPath>
    <clipPath
       id="b-9">
      <use
         overflow="visible"
         xlink:href="#a"
         id="use8-1" />
    </clipPath>
    <filter
       style="color-interpolation-filters:sRGB;"
       inkscape:label="Drop Shadow"
       id="filter5167">
      <feFlood
         flood-opacity="0.298039"
         flood-color="rgb(0,0,0)"
         result="flood"
         id="feFlood5169" />
      <feComposite
         in="flood"
         in2="SourceGraphic"
         operator="in"
         result="composite1"
         id="feComposite5171" />
      <feGaussianBlur
         in="composite1"
         stdDeviation="2"
         result="blur"
         id="feGaussianBlur5173" />
      <feOffset
         dx="0"
         dy="2"
         result="offset"
         id="feOffset5175" />
      <feComposite
         in="SourceGraphic"
         in2="offset"
         operator="over"
         result="fbSourceGraphic"
         id="feComposite5177" />
      <feColorMatrix
         result="fbSourceGraphicAlpha"
         in="fbSourceGraphic"
         values="0 0 0 -1 0 0 0 0 -1 0 0 0 0 -1 0 0 0 0 1 0"
         id="feColorMatrix5179" />
      <feFlood
         id="feFlood5181"
         flood-opacity="0.2"
         flood-color="rgb(0,0,0)"
         result="flood"
         in="fbSourceGraphic" />
      <feComposite
         id="feComposite5183"
         in2="fbSourceGraphic"
         in="flood"
         operator="in"
         result="composite1" />
      <feGaussianBlur
         id="feGaussianBlur5185"
         in="composite1"
         stdDeviation="2"
         result="blur" />
      <feOffset
         id="feOffset5187"
         dx="0"
         dy="2"
         result="offset" />
      <feComposite
         id="feComposite5189"
         in2="offset"
         in="fbSourceGraphic"
         operator="over"
         result="composite2" />
    </filter>
    <linearGradient
       inkscape:collect="always"
       xlink:href="#linearGradient5211"
       id="linearGradient5209"
       x1="113.48251"
       y1="44.596325"
       x2="205.50436"
       y2="138.95911"
       gradientUnits="userSpaceOnUse" />
    <filter
       inkscape:collect="always"
       style="color-interpolation-filters:sRGB"
       id="filter5217">
      <feBlend
         inkscape:collect="always"
         mode="multiply"
         in2="BackgroundImage"
         id="feBlend5219" />
    </filter>
    <radialGradient
       inkscape:collect="always"
       xlink:href="#linearGradient5225"
       id="radialGradient5231"
       cx="14.84749"
       cy="26.43923"
       fx="14.84749"
       fy="26.43923"
       r="67.442897"
       gradientTransform="matrix(1.4003999,1.4003998,-1.099141,1.099141,23.115505,-20.066817)"
       gradientUnits="userSpaceOnUse" />
    <filter
       inkscape:collect="always"
       style="color-interpolation-filters:sRGB"
       id="filter5273">
      <feBlend
         inkscape:collect="always"
         mode="screen"
         in2="BackgroundImage"
         id="feBlend5275" />
    </filter>
    <radialGradient
       inkscape:collect="always"
       xlink:href="#linearGradient5315"
       id="radialGradient5323"
       cx="16.627018"
       cy="23.754078"
       fx="16.627018"
       fy="23.754078"
       r="67.442897"
       gradientTransform="matrix(2.2111094,2.1307797,-1.494366,1.5507031,21.022481,-35.631479)"
       gradientUnits="userSpaceOnUse" />
  </defs>
  <sodipodi:namedview
     id="base"
     pagecolor="#e0e0e0"
     bordercolor="#212121"
     borderopacity="1"
     inkscape:pageopacity="1"
     inkscape:pageshadow="2"
     inkscape:zoom="3.359375"
     inkscape:cx="116"
     inkscape:cy="96"
     inkscape:document-units="px"
     inkscape:current-layer="layer7"
     showgrid="false"
     units="px"
     showborder="false"
     inkscape:snap-object-midpoints="true"
     showguides="true"
     inkscape:guide-bbox="true"
     inkscape:showpageshadow="false"
     borderlayer="false"
     inkscape:snap-global="false"
     inkscape:snap-intersection-paths="true"
     inkscape:object-paths="true"
     inkscape:object-nodes="false"
     inkscape:snap-smooth-nodes="false"
     inkscape:snap-to-guides="false" />
  <metadata
     id="metadata7">
    <rdf:RDF>
      <cc:Work
         rdf:about="">
        <dc:format>image/svg+xml</dc:format>
        <dc:type
           rdf:resource="http://purl.org/dc/dcmitype/StillImage" />
        <dc:title />
      </cc:Work>
    </rdf:RDF>
  </metadata>
  <g
     sodipodi:insensitive="true"
     style="display:none"
     transform="translate(0,-8)"
     inkscape:label="Body copy"
     id="g5291"
     inkscape:groupmode="layer">
    <path
       sodipodi:nodetypes="cccccscccccccscccccsccc"
       inkscape:connector-curvature="0"
       id="path5293"
       d="M 65.405271,52 108.6791,127.98002 111.99902,180 l 19.98242,0 56.01758,0 19.98242,0 c 9.3482,0 15.5453,-10.56035 9.8086,-18.89844 l 0.008,-0.006 -17.79902,-34.41783 -2.49805,-4.83007 0.004,-0.002 c -0.24168,-0.43202 -0.45843,-0.8811 -0.64648,-1.34375 -2.4e-4,-5.7e-4 2.3e-4,-10e-4 0,-0.002 -0.56465,-1.38969 -0.87696,-2.90747 -0.87696,-4.5 0,-2.12324 0.55598,-4.11545 1.52344,-5.8457 l -0.006,-0.002 2.5,-4.83398 17.79688,-34.414063 -0.008,-0.0059 C 223.1509,62.83748 217.86726,52 207.98144,52 l -19.98242,0 -56.30469,0 z"
       style="opacity:1;fill:#eeeeee;fill-opacity:1;fill-rule:nonzero;stroke:none;stroke-width:2;stroke-linecap:round;stroke-linejoin:round;stroke-miterlimit:4;stroke-dasharray:none;stroke-dashoffset:0;stroke-opacity:1" />
    <path
       inkscape:connector-curvature="0"
       id="path5295"
       d="m 24.018552,28 c -9.88582,0 -15.1714136,10.83748 -9.808594,18.898438 l -0.0078,0.0059 9.796873,18.943318 10.5,20.304688 -0.0039,0.002 c 0.96746,1.73025 1.523437,3.722463 1.523437,5.845703 0,1.061685 -0.140443,2.090621 -0.40039,3.070312 -0.129974,0.489846 -0.290301,0.966458 -0.478516,1.429688 -2.31e-4,5.69e-4 2.31e-4,0.0014 0,0.002 -0.188059,0.46265 -0.40481,0.911725 -0.646484,1.34375 l 0.0039,0.002 -10.498047,20.300643 -9.798828,18.94726 0.0098,0.006 C 8.4732584,145.43965 14.670352,156 24.018552,156 l 11.980469,0 64.019529,0 46.86719,0 -41.58984,-128 -4.99219,0 -64.304689,0 -11.980469,0 z"
       style="opacity:1;fill:#ef5350;fill-opacity:1;fill-rule:nonzero;stroke:none;stroke-width:2;stroke-linecap:round;stroke-linejoin:round;stroke-miterlimit:4;stroke-dasharray:none;stroke-dashoffset:0;stroke-opacity:1" />
    <path
       sodipodi:nodetypes="cccc"
       inkscape:connector-curvature="0"
       id="path5297"
       d="m 146.88574,156 -43.68883,0 8.79809,24 z"
       style="fill:#c62828;fill-opacity:1;fill-rule:evenodd;stroke:none;stroke-width:1px;stroke-linecap:butt;stroke-linejoin:miter;stroke-opacity:1" />
    <path
       inkscape:connector-curvature="0"
       transform="translate(0,8)"
       id="path5299"
       d="m 13.585938,26.082031 c -2.069079,3.766799 -2.142727,8.659118 0.623046,12.816407 l -0.0059,0.0059 L 24,57.847656 l 10.5,20.304688 -0.0039,0.002 c 0.96746,1.73025 1.523437,3.722463 1.523437,5.845703 0,1.061685 -0.140443,2.090621 -0.40039,3.070312 -0.129974,0.489847 -0.290301,0.966458 -0.478516,1.429688 0,0 0,0.002 0,0.002 -0.117772,0.289735 -0.264945,0.563563 -0.404297,0.841797 l 0.25586,-0.496094 -0.0039,-0.002 c 0.241674,-0.432025 0.458426,-0.8811 0.646485,-1.34375 0,0 0,-0.002 0,-0.002 0.188215,-0.46323 0.348541,-0.939841 0.478515,-1.429688 0.259947,-0.979691 0.400391,-2.008627 0.400391,-3.070312 0,-2.12324 -0.555978,-4.115453 -1.523438,-5.845703 l 0.0039,-0.002 -10.5,-20.304688 -9.796875,-18.943359 0.0078,-0.0059 C 12.178715,34.101013 12.018329,29.688522 13.585938,26.082031 Z M 13.511719,130.24805 C 9.0498243,138.37548 15.092836,148 24.017578,148 l 11.980469,0 64.019533,0 46.86719,0 -0.32422,-1 -46.04688,0 -64.019529,0 -11.980469,0 c -8.561022,0 -14.472087,-8.85635 -11.001953,-16.75195 z"
       style="display:inline;opacity:0.3;fill:#3e2723;fill-opacity:1;fill-rule:nonzero;stroke:none;stroke-width:2;stroke-linecap:round;stroke-linejoin:round;stroke-miterlimit:4;stroke-dasharray:none;stroke-dashoffset:0;stroke-opacity:1" />
    <path
       inkscape:connector-curvature="0"
       transform="translate(0,8)"
       id="path5301"
       d="m 24.017578,20 c -4.887137,0 -8.637349,2.654334 -10.544922,6.306641 0.03873,-0.07435 0.07293,-0.151153 0.113282,-0.22461 -0.831774,1.913602 -1.160344,4.05383 -0.923829,6.208985 0.36751,-5.922606 5.015155,-11.191407 11.908203,-11.191407 l 11.980469,0 64.304689,0 4.79883,0 L 105.29688,20 l -4.99415,0 -64.304683,0 -11.980469,0 z m -10.972656,7.214844 c -0.0449,0.106664 -0.09484,0.210363 -0.136719,0.318359 0.04222,-0.107668 0.09183,-0.211853 0.136719,-0.318359 z m -0.501953,1.441406 c -0.03348,0.119467 -0.07169,0.236804 -0.101563,0.357422 0.03017,-0.120109 0.06812,-0.238392 0.101563,-0.357422 z m -0.328125,1.529297 c -0.01742,0.119192 -0.03491,0.237502 -0.04883,0.357422 0.01402,-0.119568 0.03133,-0.238577 0.04883,-0.357422 z m -0.128906,1.601562 c -0.0018,0.134075 -0.0046,0.267816 -0.002,0.402344 -0.0023,-0.134294 1e-6,-0.268506 0.002,-0.402344 z m 0.0078,0.708985 c 0.0077,0.173116 0.02001,0.345996 0.03516,0.519531 -0.01497,-0.17338 -0.02745,-0.346573 -0.03516,-0.519531 z m 0.06055,0.794922 c 0.01923,0.174519 0.04341,0.348839 0.07031,0.523437 -0.02673,-0.174486 -0.05117,-0.349034 -0.07031,-0.523437 z m 0.503906,0.441406 c 0.0047,0.08587 0.02274,0.171842 0.0293,0.257812 -0.0066,-0.08584 -0.02449,-0.172069 -0.0293,-0.257812 z m -0.382812,0.408203 c 0.02857,0.157161 0.06468,0.313766 0.09961,0.470703 -0.03491,-0.157126 -0.07083,-0.313411 -0.09961,-0.470703 z m 0.171875,0.791016 c 0.03879,0.154686 0.08381,0.308691 0.128906,0.46289 -0.04531,-0.154015 -0.09029,-0.308455 -0.128906,-0.46289 z m 0.230468,0.804687 c 0.04954,0.152914 0.106204,0.304872 0.16211,0.457031 -0.05634,-0.152125 -0.112644,-0.304056 -0.16211,-0.457031 z m 0.291016,0.806641 c 0.05518,0.137422 0.119169,0.273576 0.179688,0.410156 -0.06049,-0.13662 -0.124549,-0.272699 -0.179688,-0.410156 z m 21.689453,41.951172 c 0.214311,0.412893 0.406411,0.839165 0.574219,1.277343 -0.162228,-0.428354 -0.350627,-0.842593 -0.558594,-1.246093 l -0.01563,-0.03125 z m 0.970703,1.970703 c 0.06017,0.143454 0.111324,0.291281 0.166016,0.4375 -0.05496,-0.146337 -0.105594,-0.293928 -0.166016,-0.4375 z m 0.449219,1.283203 c 0.05126,0.176242 0.09926,0.35372 0.142578,0.533203 -0.04361,-0.179817 -0.09097,-0.356649 -0.142578,-0.533203 z m 0.3125,1.388672 c 0.03307,0.19973 0.07452,0.396691 0.09766,0.599609 -0.02315,-0.203048 -0.06446,-0.399786 -0.09766,-0.599609 z M 36.490234,83.75 c -0.04998,0.796828 -0.178776,1.573423 -0.376953,2.320312 -0.129974,0.489849 -0.2903,0.966458 -0.478515,1.429688 l 0,0.002 c -0.188059,0.46265 -0.404811,0.911725 -0.646485,1.34375 l 0.0039,0.002 -0.25586,0.496094 c -0.08317,0.166051 -0.151862,0.340484 -0.242187,0.501953 l 0.0039,0.002 L 24,110.14844 l -9.798828,18.94726 0.0098,0.006 c -0.261464,0.38002 -0.488505,0.7663 -0.701172,1.1543 -0.890028,2.02865 -1.153888,4.11882 -0.919922,6.10742 0.129697,-2.06509 0.805498,-4.17617 2.171875,-6.16211 l -0.0098,-0.006 9.798828,-18.94726 10.498047,-20.300784 -0.0039,-0.002 c 0.241674,-0.432024 0.458425,-0.881099 0.646484,-1.34375 l 0,-0.002 c 0.188215,-0.46323 0.348542,-0.939841 0.478516,-1.429687 0.259947,-0.979691 0.40039,-2.008628 0.40039,-3.070313 0,-0.456782 -0.03005,-0.906259 -0.08008,-1.349609 z m -22.99414,46.5293 c -0.123948,0.22726 -0.239971,0.45621 -0.347656,0.68554 0.107831,-0.22953 0.223579,-0.45807 0.347656,-0.68554 z m -0.410156,0.82226 c -0.10377,0.2281 -0.200937,0.45598 -0.289063,0.68555 0.08804,-0.22909 0.185439,-0.45791 0.289063,-0.68555 z m -0.289063,0.68555 c -0.09928,0.25863 -0.189659,0.51749 -0.269531,0.77734 0.07998,-0.2597 0.170201,-0.51887 0.269531,-0.77734 z m -0.269531,0.77734 c -0.116435,0.37881 -0.212652,0.75905 -0.289063,1.13867 0.07671,-0.37992 0.172301,-0.75951 0.289063,-1.13867 z m -0.300782,1.19141 c -0.1501,0.76392 -0.219618,1.52527 -0.216796,2.2793 -0.002,-0.7531 0.06641,-1.51637 0.216796,-2.2793 z m -0.216796,2.34766 c 0.0036,0.37218 0.0219,0.74285 0.06055,1.10937 -0.03829,-0.36694 -0.05735,-0.73683 -0.06055,-1.10937 z m 0.06055,1.10937 c 0.02052,0.19458 0.04804,0.38754 0.07813,0.58008 -0.03016,-0.19243 -0.05784,-0.38563 -0.07813,-0.58008 z m 0.107422,0.77539 c 0.07926,0.45679 0.189211,0.90601 0.320313,1.34766 -0.130772,-0.44218 -0.24143,-0.89035 -0.320313,-1.34766 z m 0.373047,1.5293 c 0.12745,0.40578 0.278284,0.80245 0.447266,1.1914 -0.168502,-0.38868 -0.320266,-0.78589 -0.447266,-1.1914 z m 0.552735,1.42969 c 0.143862,0.31264 0.295276,0.62077 0.464843,0.91992 -0.01533,-0.0348 -0.02405,-0.0724 -0.03906,-0.10742 -9.85e-4,-0.002 -9.68e-4,-0.004 -0.002,-0.006 -0.147228,-0.26582 -0.296922,-0.53026 -0.423828,-0.80664 z"
       style="display:inline;opacity:0.3;fill:#eeeeee;fill-opacity:1;fill-rule:nonzero;stroke:none;stroke-width:2;stroke-linecap:round;stroke-linejoin:round;stroke-miterlimit:4;stroke-dasharray:none;stroke-dashoffset:0;stroke-opacity:1" />
    <path
       inkscape:connector-curvature="0"
       id="path5303"
       transform="translate(0,8)"
       d="m 113.09375,44 0.32617,1 17.95899,0 56.30468,0 19.98243,0 c 8.39759,0 13.4686,7.819859 11.51953,15.115234 C 221.90764,52.553524 216.7639,44 207.98047,44 l -19.98242,0 -56.30469,0 -18.59961,0 z m 83.26172,61.06055 c -0.4324,1.23633 -0.68945,2.55552 -0.68945,3.93945 0,1.59253 0.3123,3.11031 0.87695,4.5 l 0,0.002 c 0.18805,0.46265 0.4048,0.91173 0.64648,1.34375 l -0.004,0.002 2.49804,4.83007 17.79883,34.41797 -0.008,0.006 c 2.22069,3.2277 2.64716,6.78723 1.80078,9.93946 1.23523,-3.38428 0.97498,-7.36488 -1.48437,-10.93946 l 0.008,-0.006 -17.80078,-34.41797 -2.49805,-4.83007 0.006,-0.002 c -0.24168,-0.43202 -0.45843,-0.8811 -0.64648,-1.34375 l 0,-0.002 c -0.56467,-1.38969 -0.87696,-2.90747 -0.87696,-4.5 0,-1.01546 0.13451,-1.99826 0.37305,-2.93945 z"
       style="display:inline;opacity:0.4;fill:#bdbdbd;fill-opacity:1;fill-rule:nonzero;stroke:none;stroke-width:2;stroke-linecap:round;stroke-linejoin:round;stroke-miterlimit:4;stroke-dasharray:none;stroke-dashoffset:0;stroke-opacity:1" />
    <path
       inkscape:connector-curvature="0"
       id="path5305"
       transform="translate(0,8)"
       d="m 218.21875,49.728516 c 0.0216,0.04561 0.0356,0.09474 0.0566,0.140625 0.10617,0.18428 0.22398,0.361013 0.32031,0.550781 -0.1191,-0.234273 -0.24288,-0.465579 -0.37695,-0.691406 z m 0.70117,1.945312 c 0.0635,0.2273 0.12733,0.454246 0.17774,0.685547 -0.0505,-0.231411 -0.11414,-0.458138 -0.17774,-0.685547 z m 0.30469,1.388672 c 0.0349,0.221742 0.0652,0.443724 0.0879,0.667969 -0.0228,-0.224183 -0.053,-0.446339 -0.0879,-0.667969 z m -23.15625,56.30664 c 0.0295,0.2573 0.0676,0.51164 0.11328,0.76367 -0.0455,-0.252 -0.0838,-0.50641 -0.11328,-0.76367 z m 0.16797,1.07031 c 0.0674,0.32397 0.14522,0.64506 0.23828,0.95899 -0.093,-0.31388 -0.17092,-0.63497 -0.23828,-0.95899 z m 22.05859,43.45313 c 0.0244,0.0511 0.0428,0.10312 0.0664,0.1543 0.001,0.002 0.003,0.004 0.004,0.006 0.0525,0.0908 0.11399,0.1803 0.16407,0.27149 -0.0777,-0.14382 -0.15007,-0.2888 -0.23438,-0.43164 z m 0.35156,0.64453 c 0.20343,0.39422 0.38158,0.79209 0.53711,1.19141 -0.15579,-0.39955 -0.33348,-0.79699 -0.53711,-1.19141 z m 0.6211,1.41601 c 0.15198,0.41414 0.28186,0.82974 0.38476,1.2461 -0.10317,-0.41639 -0.2326,-0.83195 -0.38476,-1.2461 z m 0.18164,2.81055 C 219.58004,165.17547 214.39648,171 207.45508,171 l -19.98242,0 -56.01758,0 -18.00781,0 -1.44922,0.99805 0,0.002 19.98242,0 56.01758,0 19.98242,0 c 5.39614,0 9.71906,-3.52833 11.32617,-8.10742 0.41776,-1.63844 0.48386,-3.38082 0.14258,-5.12891 z m 0.54687,1.28516 c -0.002,0.43498 -0.032,0.8658 -0.082,1.29297 0.0497,-0.42755 0.0801,-0.85759 0.082,-1.29297 z m -0.0937,1.39648 c -0.0552,0.4383 -0.13336,0.87258 -0.23632,1.29883 0.10284,-0.42642 0.18136,-0.86032 0.23632,-1.29883 z m -0.23828,1.30469 c -0.0742,0.30631 -0.17377,0.60385 -0.27148,0.90234 0.0978,-0.29875 0.19737,-0.59574 0.27148,-0.90234 z"
       style="display:inline;opacity:0.4;fill:#ffffff;fill-opacity:1;fill-rule:nonzero;stroke:none;stroke-width:2;stroke-linecap:round;stroke-linejoin:round;stroke-miterlimit:4;stroke-dasharray:none;stroke-dashoffset:0;stroke-opacity:1" />
  </g>
  <g
     transform="translate(0,-8)"
     inkscape:label="Body initial"
     id="g4958"
     inkscape:groupmode="layer"
     style="display:none"
     sodipodi:insensitive="true">
    <path
       sodipodi:nodetypes="cccccccscccccc"
       inkscape:connector-curvature="0"
       id="path4960"
       d="m 115.695,52 0.28648,128 76,0 c 9.3482,0 15.54529,-10.56035 9.80859,-18.89844 l 0.008,-0.006 -20.29688,-39.24804 0.004,-0.002 c -0.96784,-1.73014 -1.52371,-3.72215 -1.52371,-5.84552 0,-2.12324 0.55598,-4.11545 1.52344,-5.8457 l -0.004,-0.002 20.29688,-39.248043 -0.008,-0.0059 C 207.15262,62.8374 201.8673,52 191.98148,52 Z"
       style="opacity:1;fill:#ec407a;fill-opacity:1;fill-rule:nonzero;stroke:none;stroke-width:2;stroke-linecap:round;stroke-linejoin:round;stroke-miterlimit:4;stroke-dasharray:none;stroke-dashoffset:0;stroke-opacity:1" />
    <path
       sodipodi:nodetypes="csssscc"
       inkscape:connector-curvature="0"
       id="path4962"
       d="M 49.40625,52 172,52 c 6.648,0 12,5.352 12,12 l 0,104 c 0,6.648 -5.352,12 -12,12 l -76,0 z"
       style="opacity:1;fill:#ce93d8;fill-opacity:1;fill-rule:nonzero;stroke:none;stroke-width:2;stroke-linecap:round;stroke-linejoin:round;stroke-miterlimit:4;stroke-dasharray:none;stroke-dashoffset:0;stroke-opacity:1" />
    <path
       sodipodi:nodetypes="sccssss"
       inkscape:connector-curvature="0"
       id="path4964"
       d="M 20,28 89.296875,28 130.88672,156 20,156 C 13.352,156 8,150.648 8,144 L 8,40 C 8,33.352 13.352,28 20,28 Z"
       style="opacity:1;fill:#ab47bc;fill-opacity:1;fill-rule:nonzero;stroke:none;stroke-width:2;stroke-linecap:round;stroke-linejoin:round;stroke-miterlimit:4;stroke-dasharray:none;stroke-dashoffset:0;stroke-opacity:1" />
    <path
       inkscape:connector-curvature="0"
       id="path4966"
       d="M 130.88672,156 87.263672,156 96,180 Z"
       style="fill:#7b1fa2;fill-opacity:1;fill-rule:evenodd;stroke:none;stroke-width:1px;stroke-linecap:butt;stroke-linejoin:miter;stroke-opacity:1" />
    <path
       sodipodi:nodetypes="cccccccscccccc"
       inkscape:connector-curvature="0"
       id="path4968"
       d="m 84.305099,28 -0.28648,128 -75.9999976,0 c -9.3482,0 -15.54529,-10.56035 -9.80859,-18.89844 l -0.008,-0.006 20.2968796,-39.24804 -0.004,-0.002 c 0.96784,-1.73014 1.52371,-3.72215 1.52371,-5.84552 0,-2.12324 -0.55598,-4.11545 -1.52344,-5.8457 l 0.004,-0.002 -20.2968796,-39.248043 0.008,-0.0059 C -7.1525186,38.8374 -1.8671986,28 8.0186214,28 Z"
       style="opacity:1;fill:#ec407a;fill-opacity:1;fill-rule:nonzero;stroke:none;stroke-width:2;stroke-linecap:round;stroke-linejoin:round;stroke-miterlimit:4;stroke-dasharray:none;stroke-dashoffset:0;stroke-opacity:1" />
    <path
       inkscape:connector-curvature="0"
       id="path4970"
       d="m 184,105.31836 -2.5,4.83398 0.006,0.002 c -0.96746,1.73025 -1.52344,3.72246 -1.52344,5.8457 0,2.12337 0.5556,4.11556 1.52344,5.8457 l -0.004,0.002 2.49805,4.83007 0,-21.35937 z"
       style="opacity:1;fill:#d84315;fill-opacity:1;fill-rule:nonzero;stroke:none;stroke-width:2;stroke-linecap:round;stroke-linejoin:round;stroke-miterlimit:4;stroke-dasharray:none;stroke-dashoffset:0;stroke-opacity:1" />
  </g>
  <g
     sodipodi:insensitive="true"
     style="display:none"
     inkscape:label="2 copy"
     id="g5277"
     inkscape:groupmode="layer">
    <path
       style="fill:#fafafa;fill-opacity:1"
       sodipodi:nodetypes="ccssssccscccsccccsssssssss"
       inkscape:connector-curvature="0"
       id="path5279"
       d="M 87.880162,58.398287 70.452328,75.851968 c -0.979972,0.953482 -1.562246,2.278195 -1.562246,3.734908 l 0,26.485744 c 0,2.91344 2.383718,5.29715 5.297149,5.29715 l 23.837174,0 c 2.198315,0 4.078395,-1.32617 4.872965,-3.23314 l 7.85147,-18.46078 c 0.23836,-0.609176 0.51844,-1.454624 0.51844,-2.143253 l 0,-5.059201 -0.0259,-0.0265 0.0259,-0.211879 c 0,-2.913438 -2.38372,-5.297143 -5.29715,-5.297143 l -15.703762,0 c -0.41712,-0.02914 -0.873137,-0.558274 -0.7857,-1.078714 L 92.21782,63.417368 c 1.098575,-4.962819 -2.111341,-7.236081 -4.337658,-5.019525 z M 56.950806,78.376401 c -1.173849,0 -2.115755,0.893999 -2.115755,2.001927 l 0,27.737612 c 0,1.10796 0.941906,1.99679 2.115755,1.99679 l 7.087006,0 c 1.173848,0 2.120928,-0.88883 2.120928,-1.99679 l 0,-27.737612 c 0,-1.107928 -0.94708,-2.001927 -2.120928,-2.001927 z" />
    <a
       id="a5281"
       style="display:inline;fill:#546e7a"
       transform="matrix(0.78794319,0,0,0.78794319,34.021667,58.108031)">
      <path
         d="m 165.2093,59.710148 c -17.31289,0 -32.09811,10.768621 -38.08837,25.969344 5.99026,15.200728 20.77548,25.969348 38.08837,25.969348 17.3129,0 32.09811,-10.76862 38.08837,-25.969348 C 197.30741,70.478769 182.5222,59.710148 165.2093,59.710148 Z m 0,43.282242 c -9.55672,0 -17.31289,-7.756179 -17.31289,-17.312898 0,-9.556718 7.75617,-17.312896 17.31289,-17.312896 9.55672,0 17.3129,7.756178 17.3129,17.312896 0,9.556719 -7.75618,17.312898 -17.3129,17.312898 z m 0,-27.700635 c -5.74788,0 -10.38774,4.639856 -10.38774,10.387737 0,5.747882 4.63986,10.387738 10.38774,10.387738 5.74788,0 10.38774,-4.639856 10.38774,-10.387738 0,-5.747881 -4.63986,-10.387737 -10.38774,-10.387737 z"
         id="path5283"
         inkscape:connector-curvature="0"
         style="fill:#546e7a" />
    </a>
  </g>
  <g
     inkscape:groupmode="layer"
     id="layer3"
     inkscape:label="Back"
     style="display:inline;opacity:1"
     transform="translate(0,-8)"
     sodipodi:insensitive="true">
    <rect
       style="opacity:1;fill:#263238;fill-opacity:1;fill-rule:nonzero;stroke:none;stroke-width:8.60000038;stroke-linecap:round;stroke-linejoin:round;stroke-miterlimit:4;stroke-dasharray:none;stroke-dashoffset:0;stroke-opacity:1"
       id="rect4192"
       width="232"
       height="192"
       x="0"
       y="8" />
  </g>
  <g
     inkscape:groupmode="layer"
     id="layer5"
     inkscape:label="Vann"
     style="display:inline"
     transform="translate(0,-8)"
     sodipodi:insensitive="true">
    <g
       style="display:inline;enable-background:new"
       id="g4545"
       transform="matrix(0.103,0,0,0.103,7.9888,172.2352)">
      <g
         style="display:inline"
         id="g3919">
        <path
           style="fill:#ffc107;fill-opacity:1;fill-rule:nonzero;stroke:none;filter:url(#filter3923)"
           id="path3921"
           d="M 184,96.000002 C 184,144.60106 144.60106,184 96.000004,184 47.398943,184 8,144.60106 8,96.000002 8,47.398944 47.398943,8 96.000004,8 144.60106,8 184,47.398944 184,96.000002 Z"
           inkscape:connector-curvature="0" />
      </g>
      <g
         style="display:inline"
         id="layer2-5">
        <path
           style="fill:#ffc107;fill-opacity:1;fill-rule:nonzero;stroke:none"
           id="path3051"
           d="M 184,96.000002 C 184,144.60106 144.60106,184 96.000004,184 47.398943,184 8,144.60106 8,96.000002 8,47.398944 47.398943,8 96.000004,8 144.60106,8 184,47.398944 184,96.000002 Z"
           inkscape:connector-curvature="0" />
      </g>
      <g
         style="display:inline;opacity:0.5"
         id="g3951">
        <path
           style="display:inline;fill:#f5f5f5;fill-opacity:1;fill-rule:nonzero;stroke:none"
           id="path3953"
           d="M 96,8 C 47.825509,8 8.7144807,46.706683 8.03125,94.71875 9.2359721,47.167413 48.158331,9 96,9 143.84166,9 182.76403,47.167413 183.96875,94.71875 183.28552,46.706683 144.17449,8 96,8 Z M 8.8125,108.03125 c 0.1542334,1.1289 0.3346195,2.22891 0.53125,3.34375 -0.1963207,-1.11423 -0.3772792,-2.21547 -0.53125,-3.34375 z m 174.375,0 c -0.15397,1.12828 -0.33493,2.22952 -0.53125,3.34375 0.19663,-1.11484 0.37702,-2.21485 0.53125,-3.34375 z M 9.75,113.5 c 0.110013,0.54548 0.2236988,1.08322 0.34375,1.625 C 9.9749229,114.58851 9.858984,114.04013 9.75,113.5 Z m 172.5,0 c -0.10898,0.54013 -0.22492,1.08851 -0.34375,1.625 0.12005,-0.54178 0.23374,-1.07952 0.34375,-1.625 z M 19.34375,139.21875 c 0.457975,0.81062 0.923568,1.61186 1.40625,2.40625 -0.482959,-0.79472 -0.948024,-1.59528 -1.40625,-2.40625 z m 153.3125,0 c -0.45823,0.81097 -0.92329,1.61153 -1.40625,2.40625 0.48268,-0.79439 0.94827,-1.59563 1.40625,-2.40625 z M 24.4375,147.1875 c 0.59395,0.82896 1.190813,1.66163 1.8125,2.46875 -0.623967,-0.81 -1.216476,-1.63675 -1.8125,-2.46875 z m 143.125,0 c -0.59602,0.832 -1.18853,1.65875 -1.8125,2.46875 0.62169,-0.80712 1.21855,-1.63979 1.8125,-2.46875 z M 41.65625,165.21875 c 0.71365,0.56083 1.456324,1.11726 2.1875,1.65625 -0.739976,-0.54533 -1.465476,-1.08856 -2.1875,-1.65625 z m 108.6875,0 c -0.72202,0.56769 -1.44752,1.11092 -2.1875,1.65625 0.73118,-0.53899 1.47385,-1.09542 2.1875,-1.65625 z m -102.75,4.25 c 0.918514,0.60642 1.839097,1.20878 2.78125,1.78125 -0.942882,-0.57282 -1.862048,-1.17443 -2.78125,-1.78125 z m 96.8125,0 c -0.9192,0.60682 -1.83837,1.20843 -2.78125,1.78125 0.94215,-0.57247 1.86274,-1.17483 2.78125,-1.78125 z M 51,171.625 c 1.006774,0.60033 2.030254,1.18925 3.0625,1.75 -1.038158,-0.56358 -2.050099,-1.14639 -3.0625,-1.75 z m 90,0 c -1.0124,0.60361 -2.02434,1.18642 -3.0625,1.75 1.03225,-0.56075 2.05573,-1.14967 3.0625,-1.75 z"
           inkscape:connector-curvature="0" />
        <path
           style="display:inline;fill:#c62828;fill-opacity:1;fill-rule:nonzero;stroke:none"
           id="path3953-0"
           d="m 54.06225,18.625002 c -1.032246,0.56075 -2.055726,1.149667 -3.0625,1.75 1.012401,-0.603606 2.024342,-1.186422 3.0625,-1.75 z m 83.875,0 c 1.03816,0.563578 2.0501,1.146394 3.0625,1.75 -1.00677,-0.600333 -2.03025,-1.18925 -3.0625,-1.75 z m -87.5625,2.125 c -0.942153,0.572466 -1.862736,1.174833 -2.78125,1.78125 0.919202,-0.606824 1.838368,-1.208428 2.78125,-1.78125 z m 91.25,0 c 0.94288,0.572822 1.86205,1.174426 2.78125,1.78125 -0.91851,-0.606417 -1.8391,-1.208784 -2.78125,-1.78125 z m -97.78125,4.375 c -0.731176,0.53899 -1.47385,1.095421 -2.1875,1.65625 0.722024,-0.567694 1.447524,-1.110921 2.1875,-1.65625 z m 104.3125,0 c 0.73998,0.545329 1.46548,1.088556 2.1875,1.65625 -0.71365,-0.560829 -1.45632,-1.11726 -2.1875,-1.65625 z M 26.24975,42.343752 c -0.621687,0.807121 -1.21855,1.639792 -1.8125,2.46875 0.596024,-0.832002 1.188533,-1.658748 1.8125,-2.46875 z m 139.5,0 c 0.62397,0.810002 1.21648,1.636748 1.8125,2.46875 -0.59395,-0.828958 -1.19081,-1.661629 -1.8125,-2.46875 z m -145,8.03125 c -0.482682,0.794389 -0.948275,1.595626 -1.40625,2.40625 0.458226,-0.810973 0.923291,-1.611535 1.40625,-2.40625 z m 150.5,0 c 0.48296,0.794715 0.94802,1.595277 1.40625,2.40625 -0.45798,-0.810624 -0.92357,-1.611861 -1.40625,-2.40625 z m -161.15625,26.5 c -0.1200512,0.541777 -0.233737,1.079518 -0.34375,1.625 0.108984,-0.54013 0.2249229,-1.088506 0.34375,-1.625 z m 171.8125,0 c 0.11883,0.536494 0.23477,1.08487 0.34375,1.625 -0.11001,-0.545482 -0.2237,-1.083223 -0.34375,-1.625 z m -172.5625,3.75 c -0.1966305,1.114841 -0.3770166,2.214854 -0.53125,3.34375 0.1539708,-1.128277 0.3349293,-2.229518 0.53125,-3.34375 z m 173.3125,0 c 0.19632,1.114232 0.37728,2.215473 0.53125,3.34375 -0.15423,-1.128896 -0.33462,-2.228909 -0.53125,-3.34375 z M 8.031,97.281252 C 8.7142307,145.29332 47.825259,184 95.99975,184 144.17424,184 183.28527,145.29332 183.9685,97.281252 182.76378,144.83259 143.84141,183 95.99975,183 48.158081,183 9.2357221,144.83259 8.031,97.281252 Z"
           inkscape:connector-curvature="0" />
      </g>
      <g
         style="display:inline;opacity:0.65;filter:url(#filter4971)"
         id="g4124">
        <path
           style="color:#000000;font-style:normal;font-variant:normal;font-weight:normal;font-stretch:normal;font-size:medium;line-height:normal;font-family:Sans;-inkscape-font-specification:Sans;text-indent:0;text-align:start;text-decoration:none;text-decoration-line:none;letter-spacing:normal;word-spacing:normal;text-transform:none;direction:ltr;block-progression:tb;writing-mode:lr-tb;baseline-shift:baseline;text-anchor:start;display:inline;overflow:visible;visibility:visible;fill:url(#linearGradient4967);fill-opacity:1;stroke:none;stroke-width:8;marker:none;enable-background:accumulate"
           id="path4126"
           d="M 147.8125,45.59375 88.25,124.09375 38.21875,74.0625 c -3.348261,-3.62671 -8.300221,0.19199 -6.9375,3.875 l 32.5625,81.53125 c 0.273222,0.69322 0.74457,1.30707 1.34375,1.75 l 22.375,22.375 C 90.338196,183.85767 93.155191,184 96,184 c 48.60106,0 88,-39.39894 88,-88 0,-8.318753 -1.15537,-16.371863 -3.3125,-24 L 154.21875,45.5625 c -1.90352,-1.977016 -4.82945,-2.040022 -6.40625,0.03125 z"
           inkscape:connector-curvature="0" />
      </g>
      <g
         style="display:inline"
         id="g4013">
        <path
           style="color:#000000;font-style:normal;font-variant:normal;font-weight:normal;font-stretch:normal;font-size:medium;line-height:normal;font-family:Sans;-inkscape-font-specification:Sans;text-indent:0;text-align:start;text-decoration:none;text-decoration-line:none;letter-spacing:normal;word-spacing:normal;text-transform:none;direction:ltr;block-progression:tb;writing-mode:lr-tb;baseline-shift:baseline;text-anchor:start;display:inline;overflow:visible;visibility:visible;fill:#1a237e;fill-opacity:1;stroke:none;stroke-width:8;marker:none;filter:url(#filter4049);enable-background:accumulate"
           id="path4015"
           d="m 150.78125,43.96875 a 4.0004,4.0004 0 0 0 -2.96875,1.625 L 68.65625,149.9375 38.71875,74.96875 a 4.0040568,4.0040568 0 1 0 -7.4375,2.96875 l 32.5625,81.53125 a 4.0004,4.0004 0 0 0 6.90625,0.9375 l 83.4375,-110 a 4.0004,4.0004 0 0 0 -3.40625,-6.4375 z m -26.4375,91.375 c -3.68333,0 -6.6875,2.97292 -6.6875,6.65625 0,3.68334 3.00417,6.65625 6.6875,6.65625 3.68333,0 6.65625,-2.97291 6.65625,-6.65625 0,-3.68333 -2.97292,-6.65625 -6.65625,-6.65625 z m 0,16.65625 C 119.89375,152 111,154.22292 111,158.65625 l 0,3.34375 26.65625,0 0,-3.34375 c 0,-4.43333 -8.8625,-6.65625 -13.3125,-6.65625 z"
           inkscape:connector-curvature="0" />
      </g>
      <g
         style="display:inline;fill:#3f51b5"
         id="layer3-3">
        <path
           style="color:#000000;font-style:normal;font-variant:normal;font-weight:normal;font-stretch:normal;font-size:medium;line-height:normal;font-family:Sans;-inkscape-font-specification:Sans;text-indent:0;text-align:start;text-decoration:none;text-decoration-line:none;letter-spacing:normal;word-spacing:normal;text-transform:none;direction:ltr;block-progression:tb;writing-mode:lr-tb;baseline-shift:baseline;text-anchor:start;display:inline;overflow:visible;visibility:visible;fill:#3f51b5;fill-opacity:1;stroke:none;stroke-width:8;marker:none;enable-background:accumulate"
           id="path3055"
           d="m 150.78125,43.96875 a 4.0004,4.0004 0 0 0 -2.96875,1.625 L 68.65625,149.9375 38.71875,74.96875 a 4.0040568,4.0040568 0 1 0 -7.4375,2.96875 l 32.5625,81.53125 a 4.0004,4.0004 0 0 0 6.90625,0.9375 l 83.4375,-110 a 4.0004,4.0004 0 0 0 -3.40625,-6.4375 z m -26.4375,91.375 c -3.68333,0 -6.6875,2.97292 -6.6875,6.65625 0,3.68334 3.00417,6.65625 6.6875,6.65625 3.68333,0 6.65625,-2.97291 6.65625,-6.65625 0,-3.68333 -2.97292,-6.65625 -6.65625,-6.65625 z m 0,16.65625 C 119.89375,152 111,154.22292 111,158.65625 l 0,3.34375 26.65625,0 0,-3.34375 c 0,-4.43333 -8.8625,-6.65625 -13.3125,-6.65625 z"
           inkscape:connector-curvature="0" />
      </g>
      <g
         style="display:inline;opacity:0.45"
         id="g4021">
        <path
           style="color:#000000;font-style:normal;font-variant:normal;font-weight:normal;font-stretch:normal;font-size:medium;line-height:normal;font-family:Sans;-inkscape-font-specification:Sans;text-indent:0;text-align:start;text-decoration:none;text-decoration-line:none;letter-spacing:normal;word-spacing:normal;text-transform:none;direction:ltr;block-progression:tb;writing-mode:lr-tb;baseline-shift:baseline;text-anchor:start;display:inline;overflow:visible;visibility:visible;fill:#eeeeee;fill-opacity:1;stroke:none;stroke-width:8;marker:none;enable-background:accumulate"
           id="path4023"
           d="m 150.78125,43.96875 a 4.0004,4.0004 0 0 0 -2.96875,1.625 L 68.65625,149.9375 38.71875,74.96875 A 4.0040568,4.0040568 0 0 0 31.03125,77 4.0040568,4.0040568 0 0 1 38.71875,75.96875 L 68.65625,150.9375 147.8125,46.59375 a 4.0004,4.0004 0 0 1 2.96875,-1.625 4.0004,4.0004 0 0 1 4.1875,3.4375 4.0004,4.0004 0 0 0 -4.1875,-4.4375 z m 4.09375,5 a 4.0004,4.0004 0 0 1 -0.46875,1.09375 4.0004,4.0004 0 0 0 0.46875,-1.09375 z m -30.53125,86.375 c -3.68333,0 -6.6875,2.97292 -6.6875,6.65625 0,0.16755 0.019,0.3356 0.0312,0.5 0.25629,-3.44962 3.14047,-6.15625 6.65625,-6.15625 3.51578,0 6.3713,2.70663 6.625,6.15625 0.0121,-0.1644 0.0312,-0.33245 0.0312,-0.5 0,-3.68333 -2.97292,-6.65625 -6.65625,-6.65625 z m 6.625,7.15625 c -0.0159,0.2156 -0.0268,0.41568 -0.0625,0.625 0.0349,-0.206 0.0469,-0.41294 0.0625,-0.625 z m -0.0625,0.625 c -0.0357,0.20932 -0.10164,0.42293 -0.15625,0.625 0.0568,-0.20837 0.11964,-0.40893 0.15625,-0.625 z M 117.6875,142.5 c 0.0323,0.43448 0.10673,0.84296 0.21875,1.25 -0.11026,-0.40415 -0.18671,-0.8188 -0.21875,-1.25 z m 6.65625,9.5 C 119.89375,152 111,154.22292 111,158.65625 l 0,1 C 111,155.22292 119.89375,153 124.34375,153 c 4.45,0 13.3125,2.22292 13.3125,6.65625 l 0,-1 c 0,-4.43333 -8.8625,-6.65625 -13.3125,-6.65625 z"
           inkscape:connector-curvature="0" />
        <path
           style="color:#000000;font-style:normal;font-variant:normal;font-weight:normal;font-stretch:normal;font-size:medium;line-height:normal;font-family:Sans;-inkscape-font-specification:Sans;text-indent:0;text-align:start;text-decoration:none;text-decoration-line:none;letter-spacing:normal;word-spacing:normal;text-transform:none;direction:ltr;block-progression:tb;writing-mode:lr-tb;baseline-shift:baseline;text-anchor:start;display:inline;overflow:visible;visibility:visible;fill:#212121;fill-opacity:1;stroke:none;stroke-width:8;marker:none;enable-background:accumulate"
           id="path4023-3"
           d="m 152.31215,44.187497 a 4.0004,4.0004 0 0 1 0.71875,0.3125 4.0004,4.0004 0 0 0 -0.71875,-0.3125 z m 1.0625,0.53125 a 4.0004,4.0004 0 0 1 0.3125,0.28125 4.0004,4.0004 0 0 0 -0.3125,-0.28125 z m 1.59375,2.75 a 4.0004,4.0004 0 0 1 -0.78125,1.9375 L 70.749646,159.40625 a 4.0004,4.0004 0 0 1 -6.90625,-0.9375 l -32.5625,-81.531253 a 4.0040568,4.0040568 0 0 1 -0.25,-0.9375 4.0040568,4.0040568 0 0 0 0.25,1.9375 l 32.5625,81.531253 a 4.0004,4.0004 0 0 0 6.90625,0.9375 L 154.18715,50.406247 a 4.0004,4.0004 0 0 0 0.78125,-2.9375 z M 34.968396,72.437497 a 4.0040568,4.0040568 0 0 0 -1.90625,0.53125 4.0040568,4.0040568 0 0 1 2.28125,-0.5 4.0040568,4.0040568 0 0 0 -0.375,-0.03125 z m 2.59375,0.9375 a 4.0040568,4.0040568 0 0 1 0.28125,0.28125 4.0040568,4.0040568 0 0 0 -0.28125,-0.28125 z m 0.28125,0.28125 a 4.0040568,4.0040568 0 0 1 0.5,0.59375 4.0040568,4.0040568 0 0 0 -0.5,-0.59375 z m -6.28125,0.78125 a 4.0040568,4.0040568 0 0 0 -0.3125,0.59375 4.0040568,4.0040568 0 0 1 0.3125,-0.59375 z M 117.9059,140.25 c -0.11202,0.40704 -0.18647,0.81552 -0.21875,1.25 0.032,-0.4312 0.10849,-0.84585 0.21875,-1.25 z m -0.21875,1.25 c -0.0122,0.1644 -0.0312,0.33245 -0.0312,0.5 0,3.68334 3.00417,6.65625 6.6875,6.65625 3.68333,0 6.65625,-2.97291 6.65625,-6.65625 0,-0.16755 -0.0192,-0.3356 -0.0312,-0.5 -0.2537,3.44962 -3.10922,6.15625 -6.625,6.15625 -3.51578,0 -6.39996,-2.70663 -6.65625,-6.15625 z m 13.28125,0 c -0.0156,-0.21206 -0.0276,-0.419 -0.0625,-0.625 0.0357,0.20932 0.0466,0.4094 0.0625,0.625 z m -0.0625,-0.625 c -0.0366,-0.21607 -0.0994,-0.41663 -0.15625,-0.625 0.0546,0.20207 0.12054,0.41568 0.15625,0.625 z M 110.99965,161 l 0,1 26.65625,0 0,-1 -26.65625,0 z"
           inkscape:connector-curvature="0" />
      </g>
      <g
         style="display:inline;opacity:0.1;enable-background:new"
         id="g3027">
        <path
           style="fill:url(#linearGradient3805);fill-opacity:1;fill-rule:nonzero;stroke:none"
           id="path3029"
           d="M 184,96.000002 C 184,144.60106 144.60106,184 96.000004,184 47.398943,184 8,144.60106 8,96.000002 8,47.398944 47.398943,8 96.000004,8 144.60106,8 184,47.398944 184,96.000002 Z"
           inkscape:connector-curvature="0" />
      </g>
    </g>
  </g>
  <g
     inkscape:groupmode="layer"
     id="layer7"
     inkscape:label="Bg shadow"
     style="display:inline"
     sodipodi:insensitive="true">
    <path
       style="display:inline;opacity:1;fill:#eeeeee;fill-opacity:1;fill-rule:nonzero;stroke:none;stroke-width:2;stroke-linecap:round;stroke-linejoin:round;stroke-miterlimit:4;stroke-dasharray:none;stroke-dashoffset:0;stroke-opacity:1;filter:url(#filter5167)"
       d="m 24.017578,20 c -9.88582,0 -15.1714132,10.83748 -9.808594,18.898438 l -0.0059,0.0059 L 24,57.847656 l 10.5,20.304688 -0.0039,0.002 c 0.96746,1.73025 1.523437,3.722463 1.523437,5.845703 0,1.061685 -0.140443,2.090621 -0.40039,3.070312 -0.129974,0.489847 -0.290301,0.966458 -0.478516,1.429688 l 0,0.002 c -0.188059,0.46265 -0.40481,0.911725 -0.646484,1.34375 l 0.0039,0.002 L 24,110.14844 l -9.798828,18.94726 0.0098,0.006 C 8.4741929,137.43951 14.669378,148 24.017578,148 l 11.980469,0 64.019533,0 3.26242,0 8.71414,24 0.004,-0.002 0.10186,0.002 19.88086,0 56.01758,0 19.98242,0 c 9.3482,0 15.54725,-10.56035 9.81055,-18.89844 l 0.008,-0.006 -17.80078,-34.41797 -2.49805,-4.83007 0.006,-0.002 c -0.24168,-0.43202 -0.45843,-0.8811 -0.64648,-1.34375 l 0,-0.002 c -0.56466,-1.38969 -0.87696,-2.90747 -0.87696,-4.5 0,-2.12324 0.55598,-4.11545 1.52344,-5.8457 l -0.008,-0.002 2.5,-4.833981 17.79687,-34.414062 -0.008,-0.0059 C 223.15016,54.83765 217.86629,44 207.98047,44 l -19.98242,0 -56.30469,0 -18.59961,0 -7.79687,-24 -4.99415,0 -64.304683,0 z"
       id="path5159"
       inkscape:connector-curvature="0"
       sodipodi:nodetypes="scccccsscccccccsccccccccscccccccscccccsccccccs" />
  </g>
  <g
     inkscape:groupmode="layer"
     id="layer6"
     inkscape:label="Body"
     transform="translate(0,-8)"
     style="display:inline"
     sodipodi:insensitive="true">
    <path
       style="opacity:1;fill:#eeeeee;fill-opacity:1;fill-rule:nonzero;stroke:none;stroke-width:2;stroke-linecap:round;stroke-linejoin:round;stroke-miterlimit:4;stroke-dasharray:none;stroke-dashoffset:0;stroke-opacity:1"
       d="M 65.405271,52 108.6791,127.98002 111.99902,180 l 19.98242,0 56.01758,0 19.98242,0 c 9.3482,0 15.5453,-10.56035 9.8086,-18.89844 l 0.008,-0.006 -17.79902,-34.41783 -2.49805,-4.83007 0.004,-0.002 c -0.24168,-0.43202 -0.45843,-0.8811 -0.64648,-1.34375 -2.4e-4,-5.7e-4 2.3e-4,-10e-4 0,-0.002 -0.56465,-1.38969 -0.87696,-2.90747 -0.87696,-4.5 0,-2.12324 0.55598,-4.11545 1.52344,-5.8457 l -0.006,-0.002 2.5,-4.83398 17.79688,-34.414063 -0.008,-0.0059 C 223.1509,62.83748 217.86726,52 207.98144,52 l -19.98242,0 -56.30469,0 z"
       id="path4846"
       inkscape:connector-curvature="0"
       sodipodi:nodetypes="cccccscccccccscccccsccc" />
    <path
       style="opacity:1;fill:url(#radialGradient5323);fill-opacity:1;fill-rule:nonzero;stroke:none;stroke-width:2;stroke-linecap:round;stroke-linejoin:round;stroke-miterlimit:4;stroke-dasharray:none;stroke-dashoffset:0;stroke-opacity:1"
       d="m 24.018552,28 c -9.88582,0 -15.1714136,10.83748 -9.808594,18.898438 l -0.0078,0.0059 9.796873,18.943318 10.5,20.304688 -0.0039,0.002 c 0.96746,1.73025 1.523437,3.722463 1.523437,5.845703 0,1.061685 -0.140443,2.090621 -0.40039,3.070312 -0.129974,0.489846 -0.290301,0.966458 -0.478516,1.429688 -2.31e-4,5.69e-4 2.31e-4,0.0014 0,0.002 -0.188059,0.46265 -0.40481,0.911725 -0.646484,1.34375 l 0.0039,0.002 -10.498047,20.300643 -9.798828,18.94726 0.0098,0.006 C 8.4732584,145.43965 14.670352,156 24.018552,156 l 11.980469,0 64.019529,0 46.86719,0 -41.58984,-128 -4.99219,0 -64.304689,0 -11.980469,0 z"
       id="rect4838"
       inkscape:connector-curvature="0" />
    <path
       style="fill:#b71c1c;fill-opacity:1;fill-rule:evenodd;stroke:none;stroke-width:1px;stroke-linecap:butt;stroke-linejoin:miter;stroke-opacity:1"
       d="m 146.88574,156 -43.68883,0 8.79809,24 z"
       id="path4844"
       inkscape:connector-curvature="0"
       sodipodi:nodetypes="cccc" />
    <path
       style="display:inline;opacity:0.3;fill:#3e2723;fill-opacity:1;fill-rule:nonzero;stroke:none;stroke-width:2;stroke-linecap:round;stroke-linejoin:round;stroke-miterlimit:4;stroke-dasharray:none;stroke-dashoffset:0;stroke-opacity:1"
       d="m 13.585938,26.082031 c -2.069079,3.766799 -2.142727,8.659118 0.623046,12.816407 l -0.0059,0.0059 L 24,57.847656 l 10.5,20.304688 -0.0039,0.002 c 0.96746,1.73025 1.523437,3.722463 1.523437,5.845703 0,1.061685 -0.140443,2.090621 -0.40039,3.070312 -0.129974,0.489847 -0.290301,0.966458 -0.478516,1.429688 0,0 0,0.002 0,0.002 -0.117772,0.289735 -0.264945,0.563563 -0.404297,0.841797 l 0.25586,-0.496094 -0.0039,-0.002 c 0.241674,-0.432025 0.458426,-0.8811 0.646485,-1.34375 0,0 0,-0.002 0,-0.002 0.188215,-0.46323 0.348541,-0.939841 0.478515,-1.429688 0.259947,-0.979691 0.400391,-2.008627 0.400391,-3.070312 0,-2.12324 -0.555978,-4.115453 -1.523438,-5.845703 l 0.0039,-0.002 -10.5,-20.304688 -9.796875,-18.943359 0.0078,-0.0059 C 12.178715,34.101013 12.018329,29.688522 13.585938,26.082031 Z M 13.511719,130.24805 C 9.0498243,138.37548 15.092836,148 24.017578,148 l 11.980469,0 64.019533,0 46.86719,0 -0.32422,-1 -46.04688,0 -64.019529,0 -11.980469,0 c -8.561022,0 -14.472087,-8.85635 -11.001953,-16.75195 z"
       id="path5103"
       transform="translate(0,8)"
       inkscape:connector-curvature="0" />
    <path
       style="display:inline;opacity:0.3;fill:#eeeeee;fill-opacity:1;fill-rule:nonzero;stroke:none;stroke-width:2;stroke-linecap:round;stroke-linejoin:round;stroke-miterlimit:4;stroke-dasharray:none;stroke-dashoffset:0;stroke-opacity:1"
       d="m 24.017578,20 c -4.887137,0 -8.637349,2.654334 -10.544922,6.306641 0.03873,-0.07435 0.07293,-0.151153 0.113282,-0.22461 -0.831774,1.913602 -1.160344,4.05383 -0.923829,6.208985 0.36751,-5.922606 5.015155,-11.191407 11.908203,-11.191407 l 11.980469,0 64.304689,0 4.79883,0 L 105.29688,20 l -4.99415,0 -64.304683,0 -11.980469,0 z m -10.972656,7.214844 c -0.0449,0.106664 -0.09484,0.210363 -0.136719,0.318359 0.04222,-0.107668 0.09183,-0.211853 0.136719,-0.318359 z m -0.501953,1.441406 c -0.03348,0.119467 -0.07169,0.236804 -0.101563,0.357422 0.03017,-0.120109 0.06812,-0.238392 0.101563,-0.357422 z m -0.328125,1.529297 c -0.01742,0.119192 -0.03491,0.237502 -0.04883,0.357422 0.01402,-0.119568 0.03133,-0.238577 0.04883,-0.357422 z m -0.128906,1.601562 c -0.0018,0.134075 -0.0046,0.267816 -0.002,0.402344 -0.0023,-0.134294 1e-6,-0.268506 0.002,-0.402344 z m 0.0078,0.708985 c 0.0077,0.173116 0.02001,0.345996 0.03516,0.519531 -0.01497,-0.17338 -0.02745,-0.346573 -0.03516,-0.519531 z m 0.06055,0.794922 c 0.01923,0.174519 0.04341,0.348839 0.07031,0.523437 -0.02673,-0.174486 -0.05117,-0.349034 -0.07031,-0.523437 z m 0.503906,0.441406 c 0.0047,0.08587 0.02274,0.171842 0.0293,0.257812 -0.0066,-0.08584 -0.02449,-0.172069 -0.0293,-0.257812 z m -0.382812,0.408203 c 0.02857,0.157161 0.06468,0.313766 0.09961,0.470703 -0.03491,-0.157126 -0.07083,-0.313411 -0.09961,-0.470703 z m 0.171875,0.791016 c 0.03879,0.154686 0.08381,0.308691 0.128906,0.46289 -0.04531,-0.154015 -0.09029,-0.308455 -0.128906,-0.46289 z m 0.230468,0.804687 c 0.04954,0.152914 0.106204,0.304872 0.16211,0.457031 -0.05634,-0.152125 -0.112644,-0.304056 -0.16211,-0.457031 z m 0.291016,0.806641 c 0.05518,0.137422 0.119169,0.273576 0.179688,0.410156 -0.06049,-0.13662 -0.124549,-0.272699 -0.179688,-0.410156 z m 21.689453,41.951172 c 0.214311,0.412893 0.406411,0.839165 0.574219,1.277343 -0.162228,-0.428354 -0.350627,-0.842593 -0.558594,-1.246093 l -0.01563,-0.03125 z m 0.970703,1.970703 c 0.06017,0.143454 0.111324,0.291281 0.166016,0.4375 -0.05496,-0.146337 -0.105594,-0.293928 -0.166016,-0.4375 z m 0.449219,1.283203 c 0.05126,0.176242 0.09926,0.35372 0.142578,0.533203 -0.04361,-0.179817 -0.09097,-0.356649 -0.142578,-0.533203 z m 0.3125,1.388672 c 0.03307,0.19973 0.07452,0.396691 0.09766,0.599609 -0.02315,-0.203048 -0.06446,-0.399786 -0.09766,-0.599609 z M 36.490234,83.75 c -0.04998,0.796828 -0.178776,1.573423 -0.376953,2.320312 -0.129974,0.489849 -0.2903,0.966458 -0.478515,1.429688 l 0,0.002 c -0.188059,0.46265 -0.404811,0.911725 -0.646485,1.34375 l 0.0039,0.002 -0.25586,0.496094 c -0.08317,0.166051 -0.151862,0.340484 -0.242187,0.501953 l 0.0039,0.002 L 24,110.14844 l -9.798828,18.94726 0.0098,0.006 c -0.261464,0.38002 -0.488505,0.7663 -0.701172,1.1543 -0.890028,2.02865 -1.153888,4.11882 -0.919922,6.10742 0.129697,-2.06509 0.805498,-4.17617 2.171875,-6.16211 l -0.0098,-0.006 9.798828,-18.94726 10.498047,-20.300784 -0.0039,-0.002 c 0.241674,-0.432024 0.458425,-0.881099 0.646484,-1.34375 l 0,-0.002 c 0.188215,-0.46323 0.348542,-0.939841 0.478516,-1.429687 0.259947,-0.979691 0.40039,-2.008628 0.40039,-3.070313 0,-0.456782 -0.03005,-0.906259 -0.08008,-1.349609 z m -22.99414,46.5293 c -0.123948,0.22726 -0.239971,0.45621 -0.347656,0.68554 0.107831,-0.22953 0.223579,-0.45807 0.347656,-0.68554 z m -0.410156,0.82226 c -0.10377,0.2281 -0.200937,0.45598 -0.289063,0.68555 0.08804,-0.22909 0.185439,-0.45791 0.289063,-0.68555 z m -0.289063,0.68555 c -0.09928,0.25863 -0.189659,0.51749 -0.269531,0.77734 0.07998,-0.2597 0.170201,-0.51887 0.269531,-0.77734 z m -0.269531,0.77734 c -0.116435,0.37881 -0.212652,0.75905 -0.289063,1.13867 0.07671,-0.37992 0.172301,-0.75951 0.289063,-1.13867 z m -0.300782,1.19141 c -0.1501,0.76392 -0.219618,1.52527 -0.216796,2.2793 -0.002,-0.7531 0.06641,-1.51637 0.216796,-2.2793 z m -0.216796,2.34766 c 0.0036,0.37218 0.0219,0.74285 0.06055,1.10937 -0.03829,-0.36694 -0.05735,-0.73683 -0.06055,-1.10937 z m 0.06055,1.10937 c 0.02052,0.19458 0.04804,0.38754 0.07813,0.58008 -0.03016,-0.19243 -0.05784,-0.38563 -0.07813,-0.58008 z m 0.107422,0.77539 c 0.07926,0.45679 0.189211,0.90601 0.320313,1.34766 -0.130772,-0.44218 -0.24143,-0.89035 -0.320313,-1.34766 z m 0.373047,1.5293 c 0.12745,0.40578 0.278284,0.80245 0.447266,1.1914 -0.168502,-0.38868 -0.320266,-0.78589 -0.447266,-1.1914 z m 0.552735,1.42969 c 0.143862,0.31264 0.295276,0.62077 0.464843,0.91992 -0.01533,-0.0348 -0.02405,-0.0724 -0.03906,-0.10742 -9.85e-4,-0.002 -9.68e-4,-0.004 -0.002,-0.006 -0.147228,-0.26582 -0.296922,-0.53026 -0.423828,-0.80664 z"
       id="path5106"
       transform="translate(0,8)"
       inkscape:connector-curvature="0" />
    <path
       style="display:inline;opacity:0.4;fill:#bdbdbd;fill-opacity:1;fill-rule:nonzero;stroke:none;stroke-width:2;stroke-linecap:round;stroke-linejoin:round;stroke-miterlimit:4;stroke-dasharray:none;stroke-dashoffset:0;stroke-opacity:1"
       d="m 113.09375,44 0.32617,1 17.95899,0 56.30468,0 19.98243,0 c 8.39759,0 13.4686,7.819859 11.51953,15.115234 C 221.90764,52.553524 216.7639,44 207.98047,44 l -19.98242,0 -56.30469,0 -18.59961,0 z m 83.26172,61.06055 c -0.4324,1.23633 -0.68945,2.55552 -0.68945,3.93945 0,1.59253 0.3123,3.11031 0.87695,4.5 l 0,0.002 c 0.18805,0.46265 0.4048,0.91173 0.64648,1.34375 l -0.004,0.002 2.49804,4.83007 17.79883,34.41797 -0.008,0.006 c 2.22069,3.2277 2.64716,6.78723 1.80078,9.93946 1.23523,-3.38428 0.97498,-7.36488 -1.48437,-10.93946 l 0.008,-0.006 -17.80078,-34.41797 -2.49805,-4.83007 0.006,-0.002 c -0.24168,-0.43202 -0.45843,-0.8811 -0.64648,-1.34375 l 0,-0.002 c -0.56467,-1.38969 -0.87696,-2.90747 -0.87696,-4.5 0,-1.01546 0.13451,-1.99826 0.37305,-2.93945 z"
       transform="translate(0,8)"
       id="path5126"
       inkscape:connector-curvature="0" />
    <path
       style="display:inline;opacity:0.4;fill:#ffffff;fill-opacity:1;fill-rule:nonzero;stroke:none;stroke-width:2;stroke-linecap:round;stroke-linejoin:round;stroke-miterlimit:4;stroke-dasharray:none;stroke-dashoffset:0;stroke-opacity:1"
       d="m 218.21875,49.728516 c 0.0216,0.04561 0.0356,0.09474 0.0566,0.140625 0.10617,0.18428 0.22398,0.361013 0.32031,0.550781 -0.1191,-0.234273 -0.24288,-0.465579 -0.37695,-0.691406 z m 0.70117,1.945312 c 0.0635,0.2273 0.12733,0.454246 0.17774,0.685547 -0.0505,-0.231411 -0.11414,-0.458138 -0.17774,-0.685547 z m 0.30469,1.388672 c 0.0349,0.221742 0.0652,0.443724 0.0879,0.667969 -0.0228,-0.224183 -0.053,-0.446339 -0.0879,-0.667969 z m -23.15625,56.30664 c 0.0295,0.2573 0.0676,0.51164 0.11328,0.76367 -0.0455,-0.252 -0.0838,-0.50641 -0.11328,-0.76367 z m 0.16797,1.07031 c 0.0674,0.32397 0.14522,0.64506 0.23828,0.95899 -0.093,-0.31388 -0.17092,-0.63497 -0.23828,-0.95899 z m 22.05859,43.45313 c 0.0244,0.0511 0.0428,0.10312 0.0664,0.1543 0.001,0.002 0.003,0.004 0.004,0.006 0.0525,0.0908 0.11399,0.1803 0.16407,0.27149 -0.0777,-0.14382 -0.15007,-0.2888 -0.23438,-0.43164 z m 0.35156,0.64453 c 0.20343,0.39422 0.38158,0.79209 0.53711,1.19141 -0.15579,-0.39955 -0.33348,-0.79699 -0.53711,-1.19141 z m 0.6211,1.41601 c 0.15198,0.41414 0.28186,0.82974 0.38476,1.2461 -0.10317,-0.41639 -0.2326,-0.83195 -0.38476,-1.2461 z m 0.18164,2.81055 C 219.58004,165.17547 214.39648,171 207.45508,171 l -19.98242,0 -56.01758,0 -18.00781,0 -1.44922,0.99805 0,0.002 19.98242,0 56.01758,0 19.98242,0 c 5.39614,0 9.71906,-3.52833 11.32617,-8.10742 0.41776,-1.63844 0.48386,-3.38082 0.14258,-5.12891 z m 0.54687,1.28516 c -0.002,0.43498 -0.032,0.8658 -0.082,1.29297 0.0497,-0.42755 0.0801,-0.85759 0.082,-1.29297 z m -0.0937,1.39648 c -0.0552,0.4383 -0.13336,0.87258 -0.23632,1.29883 0.10284,-0.42642 0.18136,-0.86032 0.23632,-1.29883 z m -0.23828,1.30469 c -0.0742,0.30631 -0.17377,0.60385 -0.27148,0.90234 0.0978,-0.29875 0.19737,-0.59574 0.27148,-0.90234 z"
       transform="translate(0,8)"
       id="path5131"
       inkscape:connector-curvature="0" />
  </g>
  <g
     inkscape:groupmode="layer"
     id="layer1"
     inkscape:label="1"
     style="display:none"
     sodipodi:insensitive="true">
    <path
       clip-path=""
       d="m 101.5374,86.955496 -11.881797,-7.6775 C 89.078092,79.040198 88.46661,78.904313 87.821156,78.904313 l -4.089744,0 c -0.451422,0 -0.81783,-0.505995 -0.81783,-1.087722 L 82.824202,58.52157 c -0.01291,-2.819582 -2.276073,-5.095686 -5.095685,-5.095686 -2.819613,0 -5.095686,2.276074 -5.095686,5.095686 l 0,35.171771 c -0.04508,0.989313 -0.615933,1.219323 -1.461589,0.966883 L 58.483996,91.652859 c -3.249869,-0.741898 -5.2471,2.603005 -3.686063,4.644725 l 16.781791,16.781796 c 0.917224,0.91722 2.208131,1.49474 3.600952,1.49474 l 20.664781,0 c 2.547844,0 4.518173,-1.86842 4.891863,-4.34832 l 3.82353,-17.902849 c 0.034,-0.237798 0.0679,-0.475596 0.0679,-0.679424 0,-2.068682 -1.40351,-3.546563 -3.09139,-4.688031 z"
       id="path10"
       inkscape:connector-curvature="0"
       sodipodi:nodetypes=""
       style="opacity:1;fill:#fafafa;fill-opacity:1;fill-rule:nonzero;stroke:none;stroke-width:2;stroke-linecap:round;stroke-linejoin:round;stroke-miterlimit:4;stroke-dasharray:none;stroke-dashoffset:0;stroke-opacity:1" />
    <path
       style="display:inline;fill:#546e7a;fill-opacity:1"
       clip-path=""
       d="m 133.45117,106.65625 1.64453,5.06055 32.05664,0 0,-5.06055 -33.70117,0 z m 3.28906,10.12305 1.64649,5.0625 28.76562,0 0,-5.0625 -30.41211,0 z m 49.39454,3.79687 -13.89454,13.91992 -7.61914,-7.59375 -3.79492,3.79688 11.41406,11.38867 17.68946,-17.71484 -3.79492,-3.79688 z m -46.10547,6.32617 1.64648,5.0625 15.35352,0 0,-5.0625 -17,0 z"
       id="path10-2"
       inkscape:connector-curvature="0" />
  </g>
  <g
     inkscape:groupmode="layer"
     id="layer2"
     inkscape:label="2"
     style="display:inline"
     sodipodi:insensitive="true">
    <path
       d="M 87.880162,58.398287 70.452328,75.851968 c -0.979972,0.953482 -1.562246,2.278195 -1.562246,3.734908 l 0,26.485744 c 0,2.91344 2.383718,5.29715 5.297149,5.29715 l 23.837174,0 c 2.198315,0 4.078395,-1.32617 4.872965,-3.23314 l 7.85147,-18.46078 c 0.23836,-0.609176 0.51844,-1.454624 0.51844,-2.143253 l 0,-5.059201 -0.0259,-0.0265 0.0259,-0.211879 c 0,-2.913438 -2.38372,-5.297143 -5.29715,-5.297143 l -15.703762,0 c -0.41712,-0.02914 -0.873137,-0.558274 -0.7857,-1.078714 L 92.21782,63.417368 c 1.098575,-4.962819 -2.111341,-7.236081 -4.337658,-5.019525 z M 56.950806,78.376401 c -1.173849,0 -2.115755,0.893999 -2.115755,2.001927 l 0,27.737612 c 0,1.10796 0.941906,1.99679 2.115755,1.99679 l 7.087006,0 c 1.173848,0 2.120928,-0.88883 2.120928,-1.99679 l 0,-27.737612 c 0,-1.107928 -0.94708,-2.001927 -2.120928,-2.001927 z"
       id="path6-7"
       inkscape:connector-curvature="0"
       sodipodi:nodetypes="ccssssccscccsccccsssssssss"
       style="fill:#fafafa;fill-opacity:1" />
    <path
       style="fill:#546e7a"
       d="m 164.19727,105.15625 c -11.07775,0 -20.8419,5.5962 -26.64844,14.11328 l 6.3789,19.62891 c 5.53723,4.49077 12.58671,7.18164 20.26954,7.18164 13.64158,0 25.29173,-8.48363 30.01171,-20.46094 -4.71998,-11.9773 -16.37013,-20.46289 -30.01171,-20.46289 z m 0,6.82031 c 7.53015,0 13.64062,6.11243 13.64062,13.64258 0,7.53015 -6.11047,13.64063 -13.64062,13.64063 -7.53015,0 -13.64258,-6.11048 -13.64258,-13.64063 0,-7.53015 6.11243,-13.64258 13.64258,-13.64258 z m 0,5.45703 c -4.529,0 -8.18555,3.65655 -8.18555,8.18555 0,4.52901 3.65655,8.18359 8.18555,8.18359 4.529,0 8.18554,-3.65458 8.18554,-8.18359 0,-4.529 -3.65654,-8.18555 -8.18554,-8.18555 z"
       id="path6"
       inkscape:connector-curvature="0" />
  </g>
  <g
     inkscape:groupmode="layer"
     id="layer8"
     inkscape:label="Long shadow"
     style="display:inline;opacity:0.5;filter:url(#filter5217)"
     sodipodi:insensitive="true">
    <path
       style="fill:url(#linearGradient5209);fill-opacity:1;fill-rule:evenodd;stroke:none;stroke-width:1px;stroke-linecap:butt;stroke-linejoin:miter;stroke-opacity:1"
       d="M 113.0957,44.001953 146.88477,148 111.99414,172 204.61133,135.11328 113.0957,44.001953 Z"
       id="path5192"
       inkscape:connector-curvature="0" />
  </g>
  <g
     inkscape:groupmode="layer"
     id="layer9"
     inkscape:label="Final"
     style="display:inline;opacity:0.12999998;filter:url(#filter5273)"
     sodipodi:insensitive="true">
    <path
       transform="translate(0,-8)"
       inkscape:connector-curvature="0"
       id="path5222"
       d="m 24.018552,28 c -9.88582,0 -15.1714136,10.83748 -9.808594,18.898438 l -0.0078,0.0059 9.796873,18.943318 10.5,20.304688 -0.0039,0.002 c 0.96746,1.73025 1.523437,3.722463 1.523437,5.845703 0,1.061685 -0.140443,2.090621 -0.40039,3.070312 -0.129974,0.489846 -0.290301,0.966458 -0.478516,1.429688 -2.31e-4,5.69e-4 2.31e-4,0.0014 0,0.002 -0.188059,0.46265 -0.40481,0.911725 -0.646484,1.34375 l 0.0039,0.002 -10.498047,20.300643 -9.798828,18.94726 0.0098,0.006 C 8.4732584,145.43965 14.670352,156 24.018552,156 l 11.980469,0 64.019529,0 46.86719,0 -41.58984,-128 -4.99219,0 -64.304689,0 -11.980469,0 z"
       style="display:inline;opacity:1;fill:url(#radialGradient5231);fill-opacity:1;fill-rule:nonzero;stroke:none;stroke-width:2;stroke-linecap:round;stroke-linejoin:round;stroke-miterlimit:4;stroke-dasharray:none;stroke-dashoffset:0;stroke-opacity:1" />
  </g>
</svg>
